%YAML 1.1
%TAG !u! tag:unity3d.com,2011:
--- !u!162 &1
EditorUserSettings:
  m_ObjectHideFlags: 0
  serializedVersion: 4
  m_ConfigSettings:
    RecentlyUsedScenePath-0:
      value: 22424703114646680e0b0227036c6c111b07142f1f2b233e2867083debf42d
      flags: 0
    RecentlyUsedScenePath-1:
      value: 22424703114646693d293c122f0f6b5f25141d24296734202a390d0ceef40b2be1e238ecd86b716c7717e1351027
      flags: 0
    RecentlyUsedScenePath-2:
      value: 22424703114646680e0b0227036c52111f19563f22213229
      flags: 0
    RecentlyUsedScenePath-3:
      value: 224247031146465a1f0d0427023a60031f1a0826291722352026523ee3e93a76f7e93ffdfe
      flags: 0
    RecentlyUsedScenePath-4:
      value: 224247031146465a1f0d0427023a60031f1a08262917223520265237e7ed3b76f7e93ffdfe
      flags: 0
    vcSharedLogLevel:
      value: 0d5e400f0650
      flags: 0
  m_VCAutomaticAdd: 1
  m_VCDebugCom: 0
  m_VCDebugCmd: 0
  m_VCDebugOut: 0
  m_SemanticMergeMode: 2
  m_VCShowFailedCheckout: 1
  m_VCOverwriteFailedCheckoutAssets: 1
  m_VCProjectOverlayIcons: 1
  m_VCHierarchyOverlayIcons: 1
  m_VCOtherOverlayIcons: 1
  m_VCAllowAsyncUpdate: 1
